sim/axi4_lite_slave_tb.vcd
$date
	Tue Mar 18 10:38:12 2025
$end
$version
	Icarus Verilog
$end
$timescale
	1ns
$end
$scope module axi4_lite_slave_tb $end
$var reg 1 ! iCLK $end
$upscope $end
$scope module axi4_lite_slave_tb $end
$var reg 1 " s_AWVALID $end
$upscope $end
$scope module axi4_lite_slave_tb $end
$var wire 1 # s_AWREADY $end
$upscope $end
$scope module axi4_lite_slave_tb $end
$var reg 32 $ s_AWADDR [31:0] $end
$upscope $end
$scope module axi4_lite_slave_tb $end
$var reg 1 % s_WVALID $end
$upscope $end
$scope module axi4_lite_slave_tb $end
$var wire 1 & s_WREADY $end
$upscope $end
$scope module axi4_lite_slave_tb $end
$var reg 32 ' s_WDATA [31:0] $end
$upscope $end
$scope module axi4_lite_slave_tb $end
$var reg 4 ( s_WSTRB [3:0] $end
$upscope $end
$scope module axi4_lite_slave_tb $end
$var wire 1 ) s_BVALID $end
$upscope $end
$scope module axi4_lite_slave_tb $end
$var reg 1 * s_BREADY $end
$upscope $end
$scope module axi4_lite_slave_tb $end
$var wire 2 + s_BRESP [1:0] $end
$upscope $end
$scope module axi4_lite_slave_tb $end
$var reg 1 , s_ARVALID $end
$upscope $end
$scope module axi4_lite_slave_tb $end
$var wire 1 - s_ARREADY $end
$upscope $end
$scope module axi4_lite_slave_tb $end
$var reg 32 . s_ARADDR [31:0] $end
$upscope $end
$scope module axi4_lite_slave_tb $end
$var wire 1 / s_RVALID $end
$upscope $end
$scope module axi4_lite_slave_tb $end
$var reg 1 0 s_RREADY $end
$upscope $end
$scope module axi4_lite_slave_tb $end
$var wire 32 1 s_RDATA [31:0] $end
$upscope $end
$enddefinitions $end
#0
$dumpvars
b0 1
00
0/
b0 .
0-
0,
b0 +
0*
0)
b0 (
b0 '
0&
0%
b0 $
0#
0"
1!
$end
#5
0!
#10
1&
1#
1!
1*
b1111 (
b11011110101011011011111011101111 '
1%
b1 $
1"
#15
0!
#20
1!
#25
0!
#30
1!
#35
0!
#40
1!
#45
0!
#50
1)
0&
0#
1!
b0 (
b0 '
0%
b0 $
0"
#55
0!
#60
0)
1-
1!
10
b10 .
1,
0*
#65
0!
#70
1!
#75
0!
#80
1!
#85
0!
#90
1!
#95
0!
#100
b10100100100000110110011 1
1/
1!
b0 .
0,
#105
0!
#110
0-
0/
1&
1#
1!
1*
b1111 (
b11011110101011011011111011101111 '
1%
b1 $
1"
00
#115
0!
#120
1!
#125
0!
#130
1!
#135
0!
#140
1!
#145
0!
#150
1)
0&
0#
1!
b0 (
b0 '
0%
b0 $
0"
#155
0!
#160
0)
1-
1!
10
b10 .
1,
0*
#165
0!
#170
1!
#175
0!
#180
1!
#185
0!
#190
1!
#195
0!
#200
1/
1!
b0 .
0,
#205
0!
#210
0-
0/
1!
00
